module getting-started-with-grpc

go 1.16

require (
	github.com/golang/protobuf v1.4.3
	golang.org/x/net v0.0.0-20210119194325-5f4716e94777
	google.golang.org/grpc v1.35.0
	google.golang.org/protobuf v1.25.0
)
